[
  {
    "orientation":  "portrait",
    "url": {
      "full": "https://images.unsplash.com/photo-1541155219151-11d6f515c9f7?ixlib=rb-0.3.5&q=85&fm=jpg&crop=entropy&cs=srgb&ixid=eyJhcHBfaWQiOjQxMjEzfQ&s=3a613776e994545c656d3da674804757",
      "small": "https://images.unsplash.com/photo-1541155219151-11d6f515c9f7?ixlib=rb-0.3.5&q=80&fm=jpg&crop=entropy&cs=tinysrgb&w=400&fit=max&ixid=eyJhcHBfaWQiOjQxMjEzfQ&s=f24ca5ab7d674d021bf64cde0cbb7acd",
      "thumb": "https://images.unsplash.com/photo-1541155219151-11d6f515c9f7?ixlib=rb-0.3.5&q=80&fm=jpg&crop=entropy&cs=tinysrgb&w=200&fit=max&ixid=eyJhcHBfaWQiOjQxMjEzfQ&s=5dac2bed3b6db661189839a0e07b5279"
    },
    "link": "https://unsplash.com/photos/Cjp-vI-Pd9g"
  },
  {
    "orientation":  "portrait",
    "url": {
      "small": "https://images.unsplash.com/photo-1505899823904-b58e10d5231a?ixlib=rb-0.3.5&s=2e2cb1e78b9e4b632b866d364028ac95&auto=format&fit=crop&w=708&q=80"
    },
    "link": "https://unsplash.com/photos/RT4O9jWkZik"
  },
  {
    "orientation":  "portrait",
    "url": {
      "small": "https://images.unsplash.com/photo-1484882918957-e9f6567be3c8?ixlib=rb-0.3.5&s=692f7d2036748493141fd0165c0f4f25&auto=format&fit=crop&w=800&q=80"
    },
    "link": "https://unsplash.com/photos/5LED2xbiKvk"
  },
  {
    "orientation":  "portrait",
    "url": {
      "small": "https://images.unsplash.com/photo-1527241572641-9318a0fad34f?ixlib=rb-0.3.5&ixid=eyJhcHBfaWQiOjIxMDY3fQ&s=56c43e882f2fda237755c2db7d08f39b&auto=format&fit=crop&w=668&q=80"
    },
    "link": "https://unsplash.com/photos/5ZdHBzMarhU"
  },
  {
    "orientation":  "portrait",
    "url": {
      "small": "https://images.unsplash.com/photo-1528785198459-ec50485704c7?ixlib=rb-0.3.5&s=3a2fc3039516555bbb2e9cd2967bd321&auto=format&fit=crop&w=674&q=80"
    },
    "link": "https://unsplash.com/photos/D6RlVksk14g"
  },
  {
    "orientation":  "portrait",
    "url": {
      "small": "https://images.unsplash.com/photo-1530274094325-2cb8dd188df9?ixlib=rb-0.3.5&s=9abdeb479d8afccfc433106a04940f1f&auto=format&fit=crop&w=668&q=80"
    },
    "link": "https://unsplash.com/photos/-u4ddXsjULQ"
  }
]
